{
    "4":[
        {
            "name": "base",
            "schema": 4,
            "weights":{}
        },
        {
            "name": "Enhanced_Flier",
            "schema": 5,
            "weights": {
                "csi": 0.5,
                "cse": 0.5
            }
        },
        {
            "name": "Enhanced_Flier_Commander",
            "schema": 6,
            "weights": {
                "hrd": 0.5,
                "hlos": 0.5,
                "hc": 0.5,
                "hrc": 0.5,
                "hfd": 0.5,
                "csi": 0.5,
                "cse": 0.5
            }
        }, 
        {
            "name": "Enhanced_Receiver",
            "schema": 7,
            "weights": {
                "hrd": 0.5,
                "hlos": 0.5,
                "hc": 0.5,
                "hrc": 0.5,
                "hfd": 0.5,
                "csi": 3.0,
                "cse": 3.0
            }
        }, 
        {
            "name": "Limited_Mobility_Receiver",
            "schema": 8,
            "weights": {
                "hrd": 2.0,
                "hlos": 2.0,
                "hc": 5.0,
                "hrc": 5.0,
                "hfd": 2.0,
                "csi": 3.0,
                "cse": 3.0
            }
        }, 
        {
            "name": "Extreme_Flier",
            "schema": 9,
            "weights": {
                "csi": 0.2,
                "cse": 0.2
            }
        }, 
        {
            "name": "Extreme_Flier_Commander",
            "schema": 10,
            "weights": {
                "hrd": 2.0,
                "hlos": 2.0,
                "hc": 5.0,
                "hrc": 5.0,
                "hfd": 2.0,
                "csi": 0.2,
                "cse": 0.2
            }
        },
        {
            "name": "Reciever_Convenience",
            "schema": 11,
            "weights": {
                "hrd": 2.0,
                "hlos": 2.0,
                "hc": 2.0,
                "cfe": 0.0,
                "pip": 2.0
            }
        },
        {
            "name": "Extreme_Package_Safety",
            "schema": 12,
            "weights": {
                "cfe": 0.0,
                "pdp": 100.0
            }
        }
    ]
}